Cloud Cover and Precipitation – William ‘Billy’ Johnson
…
# Step 1: Create a water year and month columns
West_Yellow_CC <- West_Yellow_CC %>%
  mutate(month = month(valid, label = TRUE),  # Extract the month
         water_year = ifelse(month(valid) >= 10, year(valid) + 1, year(valid)))  # Calculate water year

# Step 2: Group by water year, month, and skyc1, and summarize the frequency
cloud_frequency <- West_Yellow_CC %>%
  group_by(month, skyc1) %>%
  summarize(frequency = n(), .groups = "drop") %>% 
  complete(month, skyc1, fill = list(frequency = 0))

# Step 3: View the result
print(cloud_frequency)

# A tibble: 84 × 3
   month skyc1 frequency
   <ord> <chr>     <int>
 1 Jan   BKN           0
 2 Jan   CLR           0
 3 Jan   FEW           0
 4 Jan   M             0
 5 Jan   OVC           0
 6 Jan   SCT           0
 7 Jan   VV            0
 8 Feb   BKN           0
 9 Feb   CLR           0
10 Feb   FEW           0
# ℹ 74 more rows
…
